@a = common dso_local global i32 0
@b = common dso_local global float 0.000000e+00
@c = common dso_local global i8 0

define i32 @main() {
  %1 = alloca i32
  %2 = alloca float
  %3 = alloca i8
  ret i32 0
}
