; ModuleID = 'tests/meta4/Int/statement_int_if.c'
source_filename = "tests/meta4/Int/statement_int_if.c"
target datalayout = "e-m:e-p270:32:32-p271:32:32-p272:64:64-i64:64-f80:128-n8:16:32:64-S128"
target triple = "x86_64-pc-linux-gnu"

@a = dso_local global i32 0, align 4
@b = dso_local global i32 0, align 4
@f = dso_local global float 0.000000e+00, align 4

; Function Attrs: noinline nounwind optnone sspstrong uwtable
define dso_local void @main() #0 {
  %1 = load i32, i32* @a, align 4
  %2 = call i32 @num(i32 %1)
  store i32 %2, i32* @b, align 4
  ret void
}

; Function Attrs: noinline nounwind optnone sspstrong uwtable
define dso_local i32 @num(i32 %0) #0 {
  %2 = alloca i32, align 4
  store i32 %0, i32* %2, align 4
  %3 = load i32, i32* %2, align 4
  %4 = add nsw i32 %3, 1
  store i32 %4, i32* %2, align 4
  %5 = load i32, i32* %2, align 4
  ret i32 %5
}

attributes #0 = { noinline nounwind optnone sspstrong uwtable "frame-pointer"="all" "min-legal-vector-width"="0" "no-trapping-math"="true" "stack-protector-buffer-size"="8" "target-cpu"="x86-64" "target-features"="+cx8,+fxsr,+mmx,+sse,+sse2,+x87" "tune-cpu"="generic" }

!llvm.module.flags = !{!0, !1, !2, !3, !4}
!llvm.ident = !{!5}

!0 = !{i32 1, !"wchar_size", i32 4}
!1 = !{i32 7, !"PIC Level", i32 2}
!2 = !{i32 7, !"PIE Level", i32 2}
!3 = !{i32 7, !"uwtable", i32 1}
!4 = !{i32 7, !"frame-pointer", i32 2}
!5 = !{!"clang version 13.0.0"}
