6a7
> SEMICOLON
11,12c12
< Line 5, column 14: illegal character (@)
< SEMICOLON
---
> Line 2, column 14: illegal character (@)
14,15c14
< Line 6, column 30: invalid escape sequence (\o)
< SEMICOLON
---
> Line 3, column 30: invalid escape sequence (\o)
