; ModuleID = 'tests/meta4/statement_if.c'
source_filename = "tests/meta4/statement_if.c"
target datalayout = "e-m:e-i64:64-f80:128-n8:16:32:64-S128"
target triple = "x86_64-pc-linux-gnu"

@a = common dso_local global i32 0, align 4
@b = common dso_local global i32 0, align 4

; Function Attrs: noinline nounwind optnone uwtable
define dso_local void @factorial() #0 {
  store i32 1, i32* @a, align 4
  %1 = load i32, i32* @a, align 4
  %2 = icmp eq i32 %1, 1
  br i1 %2, label %3, label %4

; <label>:3:                                      ; preds = %0
  store i32 2, i32* @b, align 4
  br label %4

; <label>:4:                                      ; preds = %3, %0
  ret void
}

attributes #0 = { noinline nounwind optnone uwtable "correctly-rounded-divide-sqrt-fp-math"="false" "disable-tail-calls"="false" "less-precise-fpmad"="false" "no-frame-pointer-elim"="true" "no-frame-pointer-elim-non-leaf" "no-infs-fp-math"="false" "no-jump-tables"="false" "no-nans-fp-math"="false" "no-signed-zeros-fp-math"="false" "no-trapping-math"="false" "stack-protector-buffer-size"="8" "target-cpu"="x86-64" "target-features"="+fxsr,+mmx,+sse,+sse2,+x87" "unsafe-fp-math"="false" "use-soft-float"="false" }

!llvm.module.flags = !{!0}
!llvm.ident = !{!1}

!0 = !{i32 1, !"wchar_size", i32 4}
!1 = !{!"clang version 7.0.1-12 (tags/RELEASE_701/final)"}
